Combinacao;Sphere;FAckley;Rosenbrock;RotadedSchaffers
p1= 0.01, r1= 1.0, p2= 0.01, r2= 1.0, t= 5;38.833,6936026890;20,0060433418;7.747.415.640,0443520000;85,8135446178; 
p1= 0.01, r1= 1.0, p2= 0.01, r2= 1.0, t= 20;49.014,9197115931;20,0046396280;13.830.280.294,4807760000;73,3195828022; 
p1= 0.01, r1= 1.0, p2= 0.01, r2= 1.0, t= 100;49.117,6731768370;20,0067030403;9.933.750.169,3477950000;89,5945786521; 
p1= 0.01, r1= 1.0, p2= 0.01, r2= 1.0, t= 1000;44.316,7187897463;20,0078738650;11.116.913.538,3670160000;97,7919779996; 
p1= 0.01, r1= 1.0, p2= 0.01, r2= 2.0, t= 5;30.488,2894108662;20,0039777969;7.801.799.599,4432690000;80,4138867939; 
p1= 0.01, r1= 1.0, p2= 0.01, r2= 2.0, t= 20;35.514,1481884311;20,0099857552;24.372.430.993,4339450000;81,3109826817; 
p1= 0.01, r1= 1.0, p2= 0.01, r2= 2.0, t= 100;38.335,3526615294;20,0063830538;13.854.256.938,8544250000;83,2052248170; 
p1= 0.01, r1= 1.0, p2= 0.01, r2= 2.0, t= 1000;57.147,2762073048;20,0062672705;13.205.528.738,0100820000;80,5009684944; 
p1= 0.01, r1= 1.0, p2= 0.01, r2= 4.0, t= 5;11.456,9500588211;20,0038949857;5.444.580.051,6141290000;96,1429806393; 
p1= 0.01, r1= 1.0, p2= 0.01, r2= 4.0, t= 20;16.085,2942132463;20,0061735722;13.339.697.918,7326010000;84,1457369758; 
p1= 0.01, r1= 1.0, p2= 0.01, r2= 4.0, t= 100;40.275,1994469160;20,0092759110;9.206.507.544,1279430000;85,0936657220; 
p1= 0.01, r1= 1.0, p2= 0.01, r2= 4.0, t= 1000;35.682,7485001273;20,0044862115;11.131.335.397,3374400000;80,0945476043; 
p1= 0.01, r1= 1.0, p2= 0.01, r2= 6.0, t= 5;13.229,5044181608;20,0093745878;3.465.258.856,9316983000;62,4182838591; 
p1= 0.01, r1= 1.0, p2= 0.01, r2= 6.0, t= 20;46.953,3366917737;20,0034106261;15.587.296.437,4532780000;77,6160995775; 
p1= 0.01, r1= 1.0, p2= 0.01, r2= 6.0, t= 100;48.753,7119167042;20,0063112425;20.039.282.415,4006770000;88,7191824779; 
p1= 0.01, r1= 1.0, p2= 0.01, r2= 6.0, t= 1000;41.943,8388153533;20,0029400178;12.303.583.951,0625150000;67,1256619512; 
p1= 0.01, r1= 1.0, p2= 0.1, r2= 1.0, t= 5;18.288,7342090501;20,0651996902;4.900.023.052,1178140000;73,4797327766; 
p1= 0.01, r1= 1.0, p2= 0.1, r2= 1.0, t= 20;41.381,8197929005;20,0865945006;22.751.685.933,8498080000;89,5001686495; 
p1= 0.01, r1= 1.0, p2= 0.1, r2= 1.0, t= 100;41.085,2351802960;20,0992675320;17.861.189.579,1658740000;84,6501752441; 
p1= 0.01, r1= 1.0, p2= 0.1, r2= 1.0, t= 1000;46.889,1938207927;20,0275934297;21.604.234.726,0422480000;76,0593011945; 
p1= 0.01, r1= 1.0, p2= 0.1, r2= 2.0, t= 5;141,6762596777;20,0458784760;832.112,8765323634;83,1714121380; 
p1= 0.01, r1= 1.0, p2= 0.1, r2= 2.0, t= 20;28.859,7866092653;20,0977872603;9.043.890.006,5064220000;70,3211262952; 
p1= 0.01, r1= 1.0, p2= 0.1, r2= 2.0, t= 100;59.092,8350746223;20,0773089918;11.744.130.748,0699310000;81,7336879683; 
p1= 0.01, r1= 1.0, p2= 0.1, r2= 2.0, t= 1000;49.838,6778174952;20,0112482115;29.039.278.111,0547870000;79,5970182941; 
p1= 0.01, r1= 1.0, p2= 0.1, r2= 4.0, t= 5;2,8208854299;20,0478449474;1.002,6860816513;81,9166642360; 
p1= 0.01, r1= 1.0, p2= 0.1, r2= 4.0, t= 20;17.400,4531552110;20,1227211079;759.203.427,0989847000;79,9356101789; 
p1= 0.01, r1= 1.0, p2= 0.1, r2= 4.0, t= 100;34.909,3753398615;20,1302201292;13.763.942.292,6151310000;93,7231627977; 
p1= 0.01, r1= 1.0, p2= 0.1, r2= 4.0, t= 1000;72.717,3271718532;20,0048132479;9.410.772.675,9556260000;75,4855286414; 
p1= 0.01, r1= 1.0, p2= 0.1, r2= 6.0, t= 5;13,6896447990;20,0523470924;7.202,0038126007;84,2027660666; 
p1= 0.01, r1= 1.0, p2= 0.1, r2= 6.0, t= 20;6.869,7209233448;20,0754706524;237.458.153,8202883600;81,0694394528; 
p1= 0.01, r1= 1.0, p2= 0.1, r2= 6.0, t= 100;35.234,8058429959;20,0682198381;7.599.705.051,0584380000;89,3897963522; 
p1= 0.01, r1= 1.0, p2= 0.1, r2= 6.0, t= 1000;39.515,6522616611;20,0153019344;15.418.282.759,3049300000;54,8631916159; 
p1= 0.01, r1= 1.0, p2= 0.5, r2= 1.0, t= 5;10,0407537985;20,6595033974;95.473,5547853844;68,2400620536; 
p1= 0.01, r1= 1.0, p2= 0.5, r2= 1.0, t= 20;13.113,1774496367;20,7570273797;3.681.533.985,2489270000;73,9180356278; 
p1= 0.01, r1= 1.0, p2= 0.5, r2= 1.0, t= 100;60.113,7999962450;20,5853560375;7.918.880.457,0780760000;77,6961777168; 
p1= 0.01, r1= 1.0, p2= 0.5, r2= 1.0, t= 1000;52.693,1017581534;20,0856981507;10.481.162.839,1119730000;97,4091372879; 
p1= 0.01, r1= 1.0, p2= 0.5, r2= 2.0, t= 5;12,1745294910;20,6624386972;12.258,9303984169;74,4993602750; 
p1= 0.01, r1= 1.0, p2= 0.5, r2= 2.0, t= 20;16.218,0943196854;20,8460990946;1.946.935.582,4588084000;111,8845355524; 
p1= 0.01, r1= 1.0, p2= 0.5, r2= 2.0, t= 100;36.208,3533003306;20,7487428799;12.608.869.106,8493400000;87,6493620735; 
p1= 0.01, r1= 1.0, p2= 0.5, r2= 2.0, t= 1000;40.681,8517100081;20,0613369415;20.588.823.799,7322430000;101,1923725525; 
p1= 0.01, r1= 1.0, p2= 0.5, r2= 4.0, t= 5;63,0599132157;20,8309191257;64.354,2714217787;93,5934290811; 
p1= 0.01, r1= 1.0, p2= 0.5, r2= 4.0, t= 20;735,3235046987;20,7990560854;136.467.112,3895146500;101,7037384553; 
p1= 0.01, r1= 1.0, p2= 0.5, r2= 4.0, t= 100;35.990,8304578876;20,5639438127;8.765.864.959,6760790000;84,3111310612; 
p1= 0.01, r1= 1.0, p2= 0.5, r2= 4.0, t= 1000;52.551,7476041391;20,0796653177;12.523.506.461,3687290000;75,2315413140; 
p1= 0.01, r1= 1.0, p2= 0.5, r2= 6.0, t= 5;137,7208985940;20,6656491826;243.921,6744247489;115,3969021989; 
p1= 0.01, r1= 1.0, p2= 0.5, r2= 6.0, t= 20;411,2687259788;20,8805964337;1.978.704,2050533050;106,4886747160; 
p1= 0.01, r1= 1.0, p2= 0.5, r2= 6.0, t= 100;41.903,2155573670;20,5709584953;7.470.920.312,9599750000;86,7780167541; 
p1= 0.01, r1= 1.0, p2= 0.5, r2= 6.0, t= 1000;34.377,3076346815;20,0701703016;20.047.272.733,7007680000;75,4678254097; 
p1= 0.01, r1= 1.0, p2= 1.0, r2= 1.0, t= 5;5,8269726399;21,1118239631;150.433,8255764831;82,0535521929; 
p1= 0.01, r1= 1.0, p2= 1.0, r2= 1.0, t= 20;25.965,1381971868;20,8969113841;895.120.207,1597346000;94,9341326413; 
p1= 0.01, r1= 1.0, p2= 1.0, r2= 1.0, t= 100;33.787,4271770340;20,9198528432;11.055.950.564,8656480000;80,2913753096; 
p1= 0.01, r1= 1.0, p2= 1.0, r2= 1.0, t= 1000;40.729,4915589930;20,1055976046;9.664.143.044,2848850000;76,6809929950; 
p1= 0.01, r1= 1.0, p2= 1.0, r2= 2.0, t= 5;34,0976094332;21,2394239138;40.642,8473217862;107,3033774174; 
p1= 0.01, r1= 1.0, p2= 1.0, r2= 2.0, t= 20;4.112,9199742440;21,1025608044;208.477.211,8271410500;103,2197357987; 
p1= 0.01, r1= 1.0, p2= 1.0, r2= 2.0, t= 100;44.190,4325033013;21,0070766421;11.203.962.623,5311430000;78,2520763638; 
p1= 0.01, r1= 1.0, p2= 1.0, r2= 2.0, t= 1000;42.071,7258540977;20,2223921980;12.934.640.756,2320440000;102,1319010891; 
p1= 0.01, r1= 1.0, p2= 1.0, r2= 4.0, t= 5;132,0601462402;21,0859423315;425.236,1429269821;111,6965086199; 
p1= 0.01, r1= 1.0, p2= 1.0, r2= 4.0, t= 20;331,8677929942;21,2366552251;5.426.105,5317789120;104,3459238468; 
p1= 0.01, r1= 1.0, p2= 1.0, r2= 4.0, t= 100;17.714,5059635279;20,6866107925;8.549.768.667,5570020000;115,7463772539; 
p1= 0.01, r1= 1.0, p2= 1.0, r2= 4.0, t= 1000;64.806,8412797526;20,1437117721;19.561.112.920,2912400000;78,8608918117; 
p1= 0.01, r1= 1.0, p2= 1.0, r2= 6.0, t= 5;190,2690020969;21,1872336067;1.536.769,9005453084;92,7443616840; 
p1= 0.01, r1= 1.0, p2= 1.0, r2= 6.0, t= 20;682,5277154614;21,1245818667;6.636.297,4683265025;121,7377075243; 
p1= 0.01, r1= 1.0, p2= 1.0, r2= 6.0, t= 100;34.345,0746434450;20,9006398108;3.843.742.091,2130140000;112,2396336947; 
p1= 0.01, r1= 1.0, p2= 1.0, r2= 6.0, t= 1000;35.055,4908746582;20,1231756934;27.395.671.552,4743900000;88,4617395105; 
p1= 0.01, r1= 2.0, p2= 0.01, r2= 1.0, t= 5;13.825,2844227196;20,0051200969;2.830.345.329,2394247000;76,8073774048; 
p1= 0.01, r1= 2.0, p2= 0.01, r2= 1.0, t= 20;10.666,1943918769;20,0071503900;2.507.155.482,6831474000;79,5348893881; 
p1= 0.01, r1= 2.0, p2= 0.01, r2= 1.0, t= 100;12.507,6334655772;20,0060980188;4.177.441.324,8668947000;78,7181532829; 
p1= 0.01, r1= 2.0, p2= 0.01, r2= 1.0, t= 1000;18.143,3259469580;20,0111311684;1.619.455.532,5694470000;75,4780033411; 
p1= 0.01, r1= 2.0, p2= 0.01, r2= 2.0, t= 5;14.760,3470615299;20,0060960717;486.079.661,7253485000;76,9839549730; 
p1= 0.01, r1= 2.0, p2= 0.01, r2= 2.0, t= 20;13.204,6515353104;20,0098057631;1.533.403.079,8991313000;78,6433594720; 
p1= 0.01, r1= 2.0, p2= 0.01, r2= 2.0, t= 100;15.997,7383793740;20,0042980682;2.043.103.388,1744618000;79,0827032689; 
p1= 0.01, r1= 2.0, p2= 0.01, r2= 2.0, t= 1000;15.054,5413293610;20,0033913486;3.214.651.245,9697510000;90,9955758536; 
p1= 0.01, r1= 2.0, p2= 0.01, r2= 4.0, t= 5;4.603,6745040823;20,0042281599;411.726.688,1175689000;81,6282361653; 
p1= 0.01, r1= 2.0, p2= 0.01, r2= 4.0, t= 20;13.243,0252312005;20,0071790882;5.199.263.075,8309560000;95,4426815925; 
p1= 0.01, r1= 2.0, p2= 0.01, r2= 4.0, t= 100;15.464,3883227887;20,0095321540;1.952.284.936,5681171000;100,0160804996; 
p1= 0.01, r1= 2.0, p2= 0.01, r2= 4.0, t= 1000;8.080,3934266441;20,0096725769;2.145.391.879,8107102000;86,9481408943; 
p1= 0.01, r1= 2.0, p2= 0.01, r2= 6.0, t= 5;2.090,7724187451;20,0036730877;225.203.264,4954728000;81,0216752539; 
p1= 0.01, r1= 2.0, p2= 0.01, r2= 6.0, t= 20;13.902,2090827601;20,0055295859;2.391.414.688,5663880000;73,7845735971; 
p1= 0.01, r1= 2.0, p2= 0.01, r2= 6.0, t= 100;15.554,2333970818;20,0033169678;7.009.095.880,5245500000;70,9198499975; 
p1= 0.01, r1= 2.0, p2= 0.01, r2= 6.0, t= 1000;15.498,6451841306;20,0055890905;2.377.346.886,7391295000;78,9734880202; 
p1= 0.01, r1= 2.0, p2= 0.1, r2= 1.0, t= 5;616,6999242398;20,0464463339;14.215.538,0304432870;83,0258496436; 
p1= 0.01, r1= 2.0, p2= 0.1, r2= 1.0, t= 20;13.833,5587988277;20,0607941413;1.602.147.572,7687940000;66,0840010917; 
p1= 0.01, r1= 2.0, p2= 0.1, r2= 1.0, t= 100;14.873,7650865748;20,1427887820;2.880.689.292,8463826000;76,9450103961; 
p1= 0.01, r1= 2.0, p2= 0.1, r2= 1.0, t= 1000;20.490,5728836028;20,0167310106;1.611.385.527,2039170000;83,2694617338; 
p1= 0.01, r1= 2.0, p2= 0.1, r2= 2.0, t= 5;10,4162080126;20,0482821572;32.712,1214748338;76,4355456502; 
p1= 0.01, r1= 2.0, p2= 0.1, r2= 2.0, t= 20;8.401,7988545863;20,1157785382;1.048.614.022,8375459000;68,1476218216; 
p1= 0.01, r1= 2.0, p2= 0.1, r2= 2.0, t= 100;13.084,6052254393;20,0826885036;2.147.130.883,7041702000;94,5631784910; 
p1= 0.01, r1= 2.0, p2= 0.1, r2= 2.0, t= 1000;9.640,9492713056;20,0217347283;1.842.490.823,2374494000;87,3513548837; 
p1= 0.01, r1= 2.0, p2= 0.1, r2= 4.0, t= 5;7,3076041852;20,0334926762;993,8862537037;73,9778815782; 
p1= 0.01, r1= 2.0, p2= 0.1, r2= 4.0, t= 20;2.263,6357549152;20,1520317706;38.756.165,9283734860;95,2207442780; 
p1= 0.01, r1= 2.0, p2= 0.1, r2= 4.0, t= 100;8.265,7563646127;20,0645984506;6.047.564.085,7347890000;87,2562958053; 
p1= 0.01, r1= 2.0, p2= 0.1, r2= 4.0, t= 1000;9.477,7098101244;20,0123044544;2.138.541.490,6337929000;76,1768941328; 
p1= 0.01, r1= 2.0, p2= 0.1, r2= 6.0, t= 5;9,0814327848;20,0376004323;1.926,4284858934;70,0033077252; 
p1= 0.01, r1= 2.0, p2= 0.1, r2= 6.0, t= 20;2.797,4252535902;20,1018561208;9.943.701,8215380800;86,5902022321; 
p1= 0.01, r1= 2.0, p2= 0.1, r2= 6.0, t= 100;8.831,0677349247;20,1414777565;2.051.492.995,6231124000;77,7450462791; 
p1= 0.01, r1= 2.0, p2= 0.1, r2= 6.0, t= 1000;10.262,2544769722;20,0134668827;2.776.793.746,4492908000;83,4630183853; 
p1= 0.01, r1= 2.0, p2= 0.5, r2= 1.0, t= 5;5,0412632107;20,7679683194;4.099,2847577974;80,6087864703; 
p1= 0.01, r1= 2.0, p2= 0.5, r2= 1.0, t= 20;10.346,8723300673;20,8532045222;851.729.888,3044865000;68,1114592416; 
p1= 0.01, r1= 2.0, p2= 0.5, r2= 1.0, t= 100;5.701,4936547981;20,6353035866;2.964.409.131,8113394000;83,0981886266; 
p1= 0.01, r1= 2.0, p2= 0.5, r2= 1.0, t= 1000;17.636,5887804674;20,0960208255;585.099.754,1378759000;85,1322516593; 
p1= 0.01, r1= 2.0, p2= 0.5, r2= 2.0, t= 5;18,9835399564;20,7000222059;7.459,0676116689;83,9533461784; 
p1= 0.01, r1= 2.0, p2= 0.5, r2= 2.0, t= 20;4.672,3630925027;20,8552043834;26.402.415,6550886030;71,3365365535; 
p1= 0.01, r1= 2.0, p2= 0.5, r2= 2.0, t= 100;17.736,4861285003;20,6919155429;2.092.201.759,4306450000;89,7716028657; 
p1= 0.01, r1= 2.0, p2= 0.5, r2= 2.0, t= 1000;15.906,2678586865;20,1120371872;4.902.332.493,8578770000;76,4681604007; 
p1= 0.01, r1= 2.0, p2= 0.5, r2= 4.0, t= 5;50,7369338202;20,6087926658;46.591,5730039301;107,2859718520; 
p1= 0.01, r1= 2.0, p2= 0.5, r2= 4.0, t= 20;265,0207695410;20,7662161999;5.468.187,5454511970;108,6780274694; 
p1= 0.01, r1= 2.0, p2= 0.5, r2= 4.0, t= 100;12.629,9649778207;20,5814629164;968.559.568,8145990000;96,6674601802; 
p1= 0.01, r1= 2.0, p2= 0.5, r2= 4.0, t= 1000;8.734,3869322385;20,1072292590;583.791.493,3779740000;86,2996984366; 
p1= 0.01, r1= 2.0, p2= 0.5, r2= 6.0, t= 5;141,8977083970;20,8663388034;183.177,8872075762;87,8656679320; 
p1= 0.01, r1= 2.0, p2= 0.5, r2= 6.0, t= 20;353,1721282236;20,7817504922;1.279.471,1807435276;116,4430421769; 
p1= 0.01, r1= 2.0, p2= 0.5, r2= 6.0, t= 100;18.657,5662234776;20,5219243448;4.063.592.632,5827785000;87,4322773640; 
p1= 0.01, r1= 2.0, p2= 0.5, r2= 6.0, t= 1000;14.235,1851865749;20,0537619825;4.666.173.327,9254280000;79,0507902222; 
p1= 0.01, r1= 2.0, p2= 1.0, r2= 1.0, t= 5;9,2152031002;21,1897809624;6.831,3676751279;102,1967277242; 
p1= 0.01, r1= 2.0, p2= 1.0, r2= 1.0, t= 20;2.505,8350205034;21,1001228666;19.048.348,1775516350;90,2098822884; 
p1= 0.01, r1= 2.0, p2= 1.0, r2= 1.0, t= 100;22.542,8293871877;20,8451953912;2.047.365.897,0726914000;69,1135583814; 
p1= 0.01, r1= 2.0, p2= 1.0, r2= 1.0, t= 1000;11.637,6239519312;20,1224675864;4.377.982.762,8404780000;81,5698085901; 
p1= 0.01, r1= 2.0, p2= 1.0, r2= 2.0, t= 5;26,3039551185;21,0659473442;127.470,2365674741;94,1969506579; 
p1= 0.01, r1= 2.0, p2= 1.0, r2= 2.0, t= 20;2.370,0613676427;21,1420216717;1.088.256,1640355096;83,6936951686; 
p1= 0.01, r1= 2.0, p2= 1.0, r2= 2.0, t= 100;24.381,0052591698;20,9347270343;3.027.732.407,4960747000;92,3179238809; 
p1= 0.01, r1= 2.0, p2= 1.0, r2= 2.0, t= 1000;26.150,9712036431;20,1686482678;2.164.194.291,2375956000;70,9812340140; 
p1= 0.01, r1= 2.0, p2= 1.0, r2= 4.0, t= 5;139,9724727576;21,1228303784;205.535,7988046527;111,9535251246; 
p1= 0.01, r1= 2.0, p2= 1.0, r2= 4.0, t= 20;586,6509651847;21,2402689755;1.850.207,3613358291;116,2128948300; 
p1= 0.01, r1= 2.0, p2= 1.0, r2= 4.0, t= 100;19.969,1439871396;20,8079983143;4.636.148.267,7662990000;102,9888060147; 
p1= 0.01, r1= 2.0, p2= 1.0, r2= 4.0, t= 1000;14.499,1464255493;20,1960827297;2.610.975.296,0723060000;74,5650564428; 
p1= 0.01, r1= 2.0, p2= 1.0, r2= 6.0, t= 5;265,6892116898;21,1548785318;777.165,7816352876;113,6567828481; 
p1= 0.01, r1= 2.0, p2= 1.0, r2= 6.0, t= 20;436,9154548606;21,1233147938;2.984.424,4197719516;106,3623133719; 
p1= 0.01, r1= 2.0, p2= 1.0, r2= 6.0, t= 100;13.701,4537933521;20,9528256083;2.374.206.211,2587233000;101,6998223803; 
p1= 0.01, r1= 2.0, p2= 1.0, r2= 6.0, t= 1000;22.247,7926430573;20,1373688165;5.475.848.412,1889260000;71,7818095959; 
p1= 0.01, r1= 4.0, p2= 0.01, r2= 1.0, t= 5;15,5979764975;20,0048954383;7.036.046,5131294440;81,3423271498; 
p1= 0.01, r1= 4.0, p2= 0.01, r2= 1.0, t= 20;1.178,0346872573;20,0114964487;48.603,5132383889;68,1310948059; 
p1= 0.01, r1= 4.0, p2= 0.01, r2= 1.0, t= 100;406,5866498569;20,0109424039;17.237.537,5527468600;58,2678918584; 
p1= 0.01, r1= 4.0, p2= 0.01, r2= 1.0, t= 1000;1.962,6664937527;20,0106802439;2.680.407,2476212740;97,5316942987; 
p1= 0.01, r1= 4.0, p2= 0.01, r2= 2.0, t= 5;32,2824162141;20,0060483494;7.819,2884539971;86,1535969087; 
p1= 0.01, r1= 4.0, p2= 0.01, r2= 2.0, t= 20;1.191,2332245752;20,0081128570;15.282,7759878107;77,5787930383; 
p1= 0.01, r1= 4.0, p2= 0.01, r2= 2.0, t= 100;641,1556092842;20,0080075210;932.399,5995168393;80,8836898908; 
p1= 0.01, r1= 4.0, p2= 0.01, r2= 2.0, t= 1000;1.176,8101948442;20,0059382229;1.544.942,7582162302;86,1243992858; 
p1= 0.01, r1= 4.0, p2= 0.01, r2= 4.0, t= 5;20,7478830188;20,0030457000;1.002,1078472950;60,5412686855; 
p1= 0.01, r1= 4.0, p2= 0.01, r2= 4.0, t= 20;741,9512103239;20,0118327353;3.345.731,2413573650;68,6561945943; 
p1= 0.01, r1= 4.0, p2= 0.01, r2= 4.0, t= 100;14,3230796744;20,0108763842;26.024.607,6749086640;86,9780788492; 
p1= 0.01, r1= 4.0, p2= 0.01, r2= 4.0, t= 1000;245,1407083891;20,0050736487;2.090.200,5013954376;66,4486014474; 
p1= 0.01, r1= 4.0, p2= 0.01, r2= 6.0, t= 5;1,4285864476;20,0030799536;60.495,9299062916;76,8797967221; 
p1= 0.01, r1= 4.0, p2= 0.01, r2= 6.0, t= 20;47,8224494789;20,0038289336;3.145,1807523760;81,6277538339; 
p1= 0.01, r1= 4.0, p2= 0.01, r2= 6.0, t= 100;195,6555813086;20,0060100235;5.927,2933631868;92,5605767454; 
p1= 0.01, r1= 4.0, p2= 0.01, r2= 6.0, t= 1000;705,8610161253;20,0078108391;3.826.460,4764046740;83,8297361554; 
p1= 0.01, r1= 4.0, p2= 0.1, r2= 1.0, t= 5;1,1481449977;20,0603983319;556,0564640690;100,6143699126; 
p1= 0.01, r1= 4.0, p2= 0.1, r2= 1.0, t= 20;323,0541440691;20,0936307393;929.696,1427975743;78,6325672060; 
p1= 0.01, r1= 4.0, p2= 0.1, r2= 1.0, t= 100;412,2870107414;20,1072455650;1.359.033,7081199912;61,6850162026; 
p1= 0.01, r1= 4.0, p2= 0.1, r2= 1.0, t= 1000;845,9723790238;20,0167626925;9.111.728,8695686740;79,9939134189; 
p1= 0.01, r1= 4.0, p2= 0.1, r2= 2.0, t= 5;1,4173617164;20,0278070662;458,6392639313;75,5688467349; 
p1= 0.01, r1= 4.0, p2= 0.1, r2= 2.0, t= 20;124,2611285570;20,1027279429;8.543,1923573055;76,7687705338; 
p1= 0.01, r1= 4.0, p2= 0.1, r2= 2.0, t= 100;105,4179028476;20,0605110090;26.168.743,7767337260;79,8334095381; 
p1= 0.01, r1= 4.0, p2= 0.1, r2= 2.0, t= 1000;1.226,8740653905;20,0355275642;55.221.920,3999665160;79,9841540787; 
p1= 0.01, r1= 4.0, p2= 0.1, r2= 4.0, t= 5;4,2780514181;20,0508871689;1.521,3881011133;87,5214876941; 
p1= 0.01, r1= 4.0, p2= 0.1, r2= 4.0, t= 20;54,8369517229;20,1063812812;286.434,9544219766;82,5777273731; 
p1= 0.01, r1= 4.0, p2= 0.1, r2= 4.0, t= 100;262,0169292447;20,1323809170;6.450.015,9226489080;80,2120482892; 
p1= 0.01, r1= 4.0, p2= 0.1, r2= 4.0, t= 1000;155,1708942423;20,0154405433;892.975,5774694933;79,7964718572; 
p1= 0.01, r1= 4.0, p2= 0.1, r2= 6.0, t= 5;6,0024573953;20,0378664093;2.626,8754338758;77,8532615032; 
p1= 0.01, r1= 4.0, p2= 0.1, r2= 6.0, t= 20;468,8809654238;20,1818116756;9.002,0182474826;87,9851928595; 
p1= 0.01, r1= 4.0, p2= 0.1, r2= 6.0, t= 100;748,3029624664;20,1047709255;52.071.488,2247320860;89,0643852216; 
p1= 0.01, r1= 4.0, p2= 0.1, r2= 6.0, t= 1000;3,2620206190;20,0226277609;23.594.137,8435728480;54,0537179742; 
p1= 0.01, r1= 4.0, p2= 0.5, r2= 1.0, t= 5;4,8504421241;20,8064238568;1.447,1022024923;77,8853415047; 
p1= 0.01, r1= 4.0, p2= 0.5, r2= 1.0, t= 20;12,1957743400;20,7459239302;32.326,1380297259;83,2567227817; 
p1= 0.01, r1= 4.0, p2= 0.5, r2= 1.0, t= 100;816,7460312315;20,5071210677;36.861,4600209241;87,4663981915; 
p1= 0.01, r1= 4.0, p2= 0.5, r2= 1.0, t= 1000;326,2023563913;20,0979146315;6.393.906,0910121900;92,0293876439; 
p1= 0.01, r1= 4.0, p2= 0.5, r2= 2.0, t= 5;21,7434629041;20,8398347779;54.567,0162945099;84,8245675196; 
p1= 0.01, r1= 4.0, p2= 0.5, r2= 2.0, t= 20;36,1417564941;20,8796148556;12.191,5661144403;84,6222187334; 
p1= 0.01, r1= 4.0, p2= 0.5, r2= 2.0, t= 100;1.531,6329526104;20,6538916570;527.287,3451298000;70,5913241412; 
p1= 0.01, r1= 4.0, p2= 0.5, r2= 2.0, t= 1000;1.254,7290035420;20,0750639186;4.234.336,9710676190;67,8386147291; 
p1= 0.01, r1= 4.0, p2= 0.5, r2= 4.0, t= 5;64,6731977699;20,7626021926;336.497,7346162066;82,8921425265; 
p1= 0.01, r1= 4.0, p2= 0.5, r2= 4.0, t= 20;92,1520243791;20,7074021328;378.504,2545800767;102,5105502793; 
p1= 0.01, r1= 4.0, p2= 0.5, r2= 4.0, t= 100;901,7785266400;20,6203075777;190.261,3362919012;93,6860798063; 
p1= 0.01, r1= 4.0, p2= 0.5, r2= 4.0, t= 1000;782,7314283149;20,0740382250;38.022.908,5437407400;75,3167884289; 
p1= 0.01, r1= 4.0, p2= 0.5, r2= 6.0, t= 5;80,1650544990;20,6342473783;144.519,0660845174;91,5212675651; 
p1= 0.01, r1= 4.0, p2= 0.5, r2= 6.0, t= 20;180,8804719652;20,8759086575;826.647,3254723392;111,1592117671; 
p1= 0.01, r1= 4.0, p2= 0.5, r2= 6.0, t= 100;1.377,2702445733;20,4083507808;189.358.416,3161035200;104,7245447561; 
p1= 0.01, r1= 4.0, p2= 0.5, r2= 6.0, t= 1000;10,0283950077;20,0774093448;249.590,6253577761;85,0272924570; 
p1= 0.01, r1= 4.0, p2= 1.0, r2= 1.0, t= 5;10,9596641803;21,0905240673;9.728,1671252486;89,7852935247; 
p1= 0.01, r1= 4.0, p2= 1.0, r2= 1.0, t= 20;108,7697536242;21,1762300172;5.781,2548880155;96,8537610059; 
p1= 0.01, r1= 4.0, p2= 1.0, r2= 1.0, t= 100;94,0841578048;21,0620461557;174.544,7114974025;78,5627285294; 
p1= 0.01, r1= 4.0, p2= 1.0, r2= 1.0, t= 1000;215,8477642707;20,1498077405;99.398,6007968158;73,1542598782; 
p1= 0.01, r1= 4.0, p2= 1.0, r2= 2.0, t= 5;29,3075492414;21,1502542962;29.541,6743187927;97,1865131378; 
p1= 0.01, r1= 4.0, p2= 1.0, r2= 2.0, t= 20;46,0784564520;21,1912463514;84.467,7234754967;105,1418559421; 
p1= 0.01, r1= 4.0, p2= 1.0, r2= 2.0, t= 100;714,4646871581;21,0576428993;200.111,6791622649;94,9895535318; 
p1= 0.01, r1= 4.0, p2= 1.0, r2= 2.0, t= 1000;262,9188427287;20,1111785853;3.752.875,1458022157;76,0825437211; 
p1= 0.01, r1= 4.0, p2= 1.0, r2= 4.0, t= 5;148,5434014650;21,1185672358;505.268,0197189325;108,6593250509; 
p1= 0.01, r1= 4.0, p2= 1.0, r2= 4.0, t= 20;220,1661140120;21,0846139641;367.411,3341466635;114,4951542579; 
p1= 0.01, r1= 4.0, p2= 1.0, r2= 4.0, t= 100;3.293,7067874921;20,9673768785;17.770.314,0958019870;93,6318450577; 
p1= 0.01, r1= 4.0, p2= 1.0, r2= 4.0, t= 1000;1.243,6734538823;20,1646119038;6.745,0247213016;83,0780255266; 
p1= 0.01, r1= 4.0, p2= 1.0, r2= 6.0, t= 5;265,8982062162;21,1994094964;835.827,9557220819;101,0319969151; 
p1= 0.01, r1= 4.0, p2= 1.0, r2= 6.0, t= 20;694,6584421904;21,2223883024;3.931.887,5311216300;127,1455751960; 
p1= 0.01, r1= 4.0, p2= 1.0, r2= 6.0, t= 100;1.252,8095604549;20,8357966208;8.702.765,6494624900;96,0181070981; 
p1= 0.01, r1= 4.0, p2= 1.0, r2= 6.0, t= 1000;385,7636074551;20,0987352028;11.702.627,1865236950;82,9596414852; 
p1= 0.01, r1= 6.0, p2= 0.01, r2= 1.0, t= 5;0,2093379083;20,0050989795;621,7138967472;91,2133981235; 
p1= 0.01, r1= 6.0, p2= 0.01, r2= 1.0, t= 20;1,4063570684;20,0056160329;1.672,4291400633;61,1691161632; 
p1= 0.01, r1= 6.0, p2= 0.01, r2= 1.0, t= 100;1,3841619214;20,0042516986;9.850,2983562761;74,1735041817; 
p1= 0.01, r1= 6.0, p2= 0.01, r2= 1.0, t= 1000;2,2862413076;20,0047954663;910,2878081317;54,2369600238; 
p1= 0.01, r1= 6.0, p2= 0.01, r2= 2.0, t= 5;0,9248054431;20,0042631137;10.909,0369058110;59,3047578101; 
p1= 0.01, r1= 6.0, p2= 0.01, r2= 2.0, t= 20;1,1170224508;20,0028177416;934,4495478132;69,2942654356; 
p1= 0.01, r1= 6.0, p2= 0.01, r2= 2.0, t= 100;2,5495490138;20,0026184309;5.004,4861701322;95,3854113732; 
p1= 0.01, r1= 6.0, p2= 0.01, r2= 2.0, t= 1000;2,7110654271;20,0026881634;5.102,5701067362;65,6159650412; 
p1= 0.01, r1= 6.0, p2= 0.01, r2= 4.0, t= 5;2,7615223545;20,0022953736;868,9670487745;70,8006343878; 
p1= 0.01, r1= 6.0, p2= 0.01, r2= 4.0, t= 20;1,6779108089;20,0039389841;9.643,6020726626;76,0886700716; 
p1= 0.01, r1= 6.0, p2= 0.01, r2= 4.0, t= 100;2,1403961940;20,0040352715;1.112,3056124245;80,1224735122; 
p1= 0.01, r1= 6.0, p2= 0.01, r2= 4.0, t= 1000;0,7228776321;20,0043284842;2.480,7650186260;75,8452138611; 
p1= 0.01, r1= 6.0, p2= 0.01, r2= 6.0, t= 5;1,4381871886;20,0033242677;683,5740808065;66,4980470033; 
p1= 0.01, r1= 6.0, p2= 0.01, r2= 6.0, t= 20;2,1884155745;20,0013894380;10.501,5588107695;63,1714465420; 
p1= 0.01, r1= 6.0, p2= 0.01, r2= 6.0, t= 100;3,9209037155;20,0063761944;8.323,8418356346;75,1080304377; 
p1= 0.01, r1= 6.0, p2= 0.01, r2= 6.0, t= 1000;1,2944880403;20,0053656826;1.463,8380043092;69,1091084950; 
p1= 0.01, r1= 6.0, p2= 0.1, r2= 1.0, t= 5;0,6274166908;20,0493965417;397,4747297106;70,1343254491; 
p1= 0.01, r1= 6.0, p2= 0.1, r2= 1.0, t= 20;1,5322249597;20,0901644203;1.082,1953716904;68,7562534898; 
p1= 0.01, r1= 6.0, p2= 0.1, r2= 1.0, t= 100;4,3342796361;20,0796749532;1.231,3554965506;73,0730884503; 
p1= 0.01, r1= 6.0, p2= 0.1, r2= 1.0, t= 1000;2,3615759176;20,0226592138;8.867,1888533570;65,4557137587; 
p1= 0.01, r1= 6.0, p2= 0.1, r2= 2.0, t= 5;1,3472855651;20,1180855122;4.859,0967422442;93,4541080660; 
p1= 0.01, r1= 6.0, p2= 0.1, r2= 2.0, t= 20;7,8389280709;20,0893984297;2.667,5834051643;80,1112605707; 
p1= 0.01, r1= 6.0, p2= 0.1, r2= 2.0, t= 100;11,4861662191;20,0881265132;13.016,2284928698;88,7984498973; 
p1= 0.01, r1= 6.0, p2= 0.1, r2= 2.0, t= 1000;1,3516172090;20,0353335783;6.732,1017273361;87,8019357125; 
p1= 0.01, r1= 6.0, p2= 0.1, r2= 4.0, t= 5;5,1877048900;20,0475290057;1.523,7156959720;67,3736282591; 
p1= 0.01, r1= 6.0, p2= 0.1, r2= 4.0, t= 20;19,9870932069;20,0895690492;3.499,9404962965;83,8231160795; 
p1= 0.01, r1= 6.0, p2= 0.1, r2= 4.0, t= 100;26,17841